[
{
"COUNTRY":"MX",
"COMMODITY":"mango",
"FIXED_OVERHEAD":"62.00",
"VARIABLE_OVERHEAD":"1.24"
},
{
"COUNTRY":"BR",
"COMMODITY":"mango",
"FIXED_OVERHEAD":"60.00",
"VARIABLE_OVERHEAD":"1.42"
},
{
"COUNTRY":"IN",
"COMMODITY":"apple",
"FIXED_OVERHEAD":"60.00",
"VARIABLE_OVERHEAD":"1.42"
},
{
"COUNTRY":"IN",
"COMMODITY":"mango",
"FIXED_OVERHEAD":"63.00",
"VARIABLE_OVERHEAD":"2.24"
},
{
"COUNTRY":"EN",
"COMMODITY":"apple",
"FIXED_OVERHEAD":"62.00",
"VARIABLE_OVERHEAD":"1.24"
}
]